^E:\DANNY\DOCUMENTS\HAND\HSKL\OBJ\HANDTRACKVIEWER\RELEASEX64\HANDTRACKVIEWER.OBJ
E:\DANNY\DOCUMENTS\HAND\HSKL\BIN\X64\HANDTRACKVIEWERRELEASE.EXE
E:\DANNY\DOCUMENTS\HAND\HSKL\OBJ\HANDTRACKVIEWER\RELEASEX64\HANDTRACKVIEWERRELEASE.EXE.INTERMEDIATE.MANIFEST
E:\DANNY\DOCUMENTS\HAND\HSKL\BIN\X64\HANDTRACKVIEWERRELEASE.PDB
