^E:\DANNY\DOCUMENTS\HAND\HSKL\OBJ\DEPTHBUFFERREADBACK\RELEASEX64\DEPTHBUFFERREADBACKRELEASE.EXE.INTERMEDIATE.MANIFEST
C:\WINDOWS\GLOBALIZATION\SORTING\SORTDEFAULT.NLS
C:\PROGRAM FILES (X86)\360\360SAFE\SAFEMON\360SAFEMONPRO.TPI
C:\PROGRAM FILES (X86)\360\360SAFE\SAFEMON\WDRES.DLL
C:\PROGRAM FILES (X86)\360\360SAFE\SAFEMON\SEPRO.DLL
C:\PROGRAM FILES (X86)\360\360SAFE\SAFEMON\URLPROC.DLL
C:\PROGRAM FILES (X86)\360\360SAFE\SAFEMON\WDUI2.DLL
C:\PROGRAM FILES (X86)\360\360SAFE\SAFEMON\SOMPROXY.DLL
C:\PROGRAMDATA\ANTI-PHISHING DOMAIN ADVISOR\VISICOM_ANTIPHISHING.MAN
C:\WINDOWS\SYSTEM32\TZRES.DLL
C:\WINDOWS\MICROSOFT.NET\FRAMEWORK\V2.0.50727\MSCORWKS.DLL
C:\WINDOWS\MICROSOFT.NET\FRAMEWORK\V4.0.30319\CLR.DLL
C:\PROGRAM FILES (X86)\MICROSOFT SDKS\WINDOWS\V7.0A\BIN\MT.EXE.CONFIG
E:\DANNY\DOCUMENTS\HAND\HSKL\BIN\X64\DEPTHBUFFERREADBACKRELEASE.EXE
