^D:\VISUAL_STUDIO_WORKSPACE\HSKL\OBJ\HANDTRACKVIEWER\RELEASEWIN32\HANDTRACKVIEWER.OBJ
/ERRORREPORT:PROMPT /OUT:"..\..\bin\Win32\HandTrackViewerRelease.exe" /INCREMENTAL:NO /NOLOGO /LIBPATH:..\..\lib\ hskl.lib freeglut.lib opengl32.lib glu32.lib opencv_core246.lib opencv_imgproc246d.lib opencv_highgui246.lib opencv_ml246d.lib opencv_video246d.lib opencv_features2d246d.lib opencv_calib3d246d.lib opencv_objdetect246d.lib opencv_contrib246d.lib opencv_legacy246d.lib opencv_flann246d.lib kernel32.lib user32.lib gdi32.lib winspool.lib comdlg32.lib advapi32.lib shell32.lib ole32.lib oleaut32.lib uuid.lib odbc32.lib odbccp32.lib /MANIFEST /ManifestFile:"..\..\obj\HandTrackViewer\ReleaseWin32\HandTrackViewerRelease.exe.intermediate.manifest" /MANIFESTUAC:"level='asInvoker' uiAccess='false'" /DEBUG /PDB:"D:\visual_studio_workspace\hskl\bin\Win32\HandTrackViewerRelease.pdb" /SUBSYSTEM:CONSOLE /OPT:REF /OPT:ICF /LTCG /TLBID:1 /DYNAMICBASE /NXCOMPAT /IMPLIB:"..\..\bin\Win32\HandTrackViewerRelease.lib" /MACHINE:X86 ..\..\obj\HandTrackViewer\ReleaseWin32\HandTrackViewer.obj
^D:\VISUAL_STUDIO_WORKSPACE\HSKL\OBJ\HANDTRACKVIEWER\RELEASEWIN32\HANDTRACKVIEWER.OBJ|D:\VISUAL_STUDIO_WORKSPACE\HSKL\OBJ\HANDTRACKVIEWER\RELEASEWIN32\TEST.OBJ
/ERRORREPORT:PROMPT /OUT:"..\..\bin\Win32\HandTrackViewerRelease.exe" /INCREMENTAL:NO /NOLOGO /LIBPATH:..\..\lib\ hskl.lib freeglut.lib opengl32.lib glu32.lib opencv_core246.lib opencv_imgproc246d.lib opencv_highgui246.lib opencv_ml246d.lib opencv_video246d.lib opencv_features2d246d.lib opencv_calib3d246d.lib opencv_objdetect246d.lib opencv_contrib246d.lib opencv_legacy246d.lib opencv_flann246d.lib "boost_filesystem-vc100-mt-1_54.lib" kernel32.lib user32.lib gdi32.lib winspool.lib comdlg32.lib advapi32.lib shell32.lib ole32.lib oleaut32.lib uuid.lib odbc32.lib odbccp32.lib /MANIFEST /ManifestFile:"..\..\obj\HandTrackViewer\ReleaseWin32\HandTrackViewerRelease.exe.intermediate.manifest" /MANIFESTUAC:"level='asInvoker' uiAccess='false'" /DEBUG /PDB:"D:\visual_studio_workspace\hskl\bin\Win32\HandTrackViewerRelease.pdb" /SUBSYSTEM:CONSOLE /OPT:REF /OPT:ICF /LTCG /TLBID:1 /DYNAMICBASE /NXCOMPAT /IMPLIB:"..\..\bin\Win32\HandTrackViewerRelease.lib" /MACHINE:X86 ..\..\obj\HandTrackViewer\ReleaseWin32\HandTrackViewer.obj
..\..\obj\HandTrackViewer\ReleaseWin32\Test.obj
