^E:\DANNY\DOCUMENTS\HAND\HSKL\OBJ\DEPTHBUFFERREADBACK\RELEASEWIN32\DEPTHBUFFERREADBACK.OBJ
E:\DANNY\DOCUMENTS\HAND\HSKL\BIN\WIN32\DEPTHBUFFERREADBACKRELEASE.EXE
E:\DANNY\DOCUMENTS\HAND\HSKL\OBJ\DEPTHBUFFERREADBACK\RELEASEWIN32\DEPTHBUFFERREADBACKRELEASE.EXE.INTERMEDIATE.MANIFEST
E:\DANNY\DOCUMENTS\HAND\HSKL\BIN\WIN32\DEPTHBUFFERREADBACKRELEASE.PDB
